<?xml version="1.0" encoding="UTF-8" standalone="no"?>
<svg
   xmlns:dc="http://purl.org/dc/elements/1.1/"
   xmlns:cc="http://creativecommons.org/ns#"
   xmlns:rdf="http://www.w3.org/1999/02/22-rdf-syntax-ns#"
   xmlns:svg="http://www.w3.org/2000/svg"
   xmlns="http://www.w3.org/2000/svg"
   xmlns:xlink="http://www.w3.org/1999/xlink"
   xmlns:sodipodi="http://sodipodi.sourceforge.net/DTD/sodipodi-0.dtd"
   xmlns:inkscape="http://www.inkscape.org/namespaces/inkscape"
   width="544.00018"
   height="543.99994"
   viewBox="0 0 143.93338 143.93332"
   version="1.1"
   id="svg8"
   inkscape:version="1.0.1 (3bc2e813f5, 2020-09-07)"
   sodipodi:docname="ui.svg">
  <defs
     id="defs2">
    <linearGradient
       inkscape:collect="always"
       id="linearGradient2219">
      <stop
         style="stop-color:#b2b2b2;stop-opacity:1"
         offset="0"
         id="stop2215" />
      <stop
         style="stop-color:#ffffff;stop-opacity:1"
         offset="1"
         id="stop2217" />
    </linearGradient>
    <linearGradient
       inkscape:collect="always"
       xlink:href="#linearGradient2219"
       id="linearGradient2221"
       x1="196.84993"
       y1="331.25832"
       x2="213.78326"
       y2="331.25832"
       gradientUnits="userSpaceOnUse" />
  </defs>
  <sodipodi:namedview
     id="base"
     pagecolor="#909090"
     bordercolor="#666666"
     borderopacity="1.0"
     inkscape:pageopacity="0"
     inkscape:pageshadow="2"
     inkscape:zoom="0.50000001"
     inkscape:cx="-299.5506"
     inkscape:cy="594.83184"
     inkscape:document-units="px"
     inkscape:current-layer="layer1"
     inkscape:document-rotation="0"
     showgrid="true"
     units="px"
     inkscape:window-width="3840"
     inkscape:window-height="2055"
     inkscape:window-x="0"
     inkscape:window-y="0"
     inkscape:window-maximized="1"
     showguides="false">
    <inkscape:grid
       type="xygrid"
       id="grid10"
       empspacing="4"
       originx="-1.9341591e-07"
       originy="7.4206626e-08" />
  </sodipodi:namedview>
  <metadata
     id="metadata5">
    <rdf:RDF>
      <cc:Work
         rdf:about="">
        <dc:format>image/svg+xml</dc:format>
        <dc:type
           rdf:resource="http://purl.org/dc/dcmitype/StillImage" />
        <dc:title />
      </cc:Work>
    </rdf:RDF>
  </metadata>
  <g
     inkscape:label="Layer 1"
     inkscape:groupmode="layer"
     id="layer1">
    <rect
       style="opacity:1;fill:#9141ac;fill-opacity:1;stroke-width:0.264583;stroke-linecap:round"
       id="menu_thick_border_top"
       width="135.46666"
       height="4.2333331"
       x="4.2333331"
       y="-7.4206625e-08"
       inkscape:label="menu_thick_border_top" />
    <rect
       style="opacity:1;fill:#9141ac;fill-opacity:1;stroke-width:0.0467721;stroke-linecap:round"
       id="menu_thick_border_top_right_corner"
       width="4.2333331"
       height="4.2333331"
       x="139.70004"
       y="-7.4206625e-08"
       inkscape:label="menu_thick_border_top_right_corner" />
    <rect
       style="opacity:1;fill:#9141ac;fill-opacity:1;stroke-width:0.0467721;stroke-linecap:round"
       id="menu_thick_border_top_left_corner"
       width="4.2333331"
       height="4.2333331"
       x="1.9341591e-07"
       y="-7.4206625e-08"
       inkscape:label="menu_thick_border_top_left_corner" />
    <rect
       style="opacity:1;fill:#9141ac;fill-opacity:1;stroke-width:0.264583;stroke-linecap:round"
       id="menu_thick_border_left"
       width="4.2333331"
       height="135.46666"
       x="1.9341591e-07"
       y="4.2333341"
       inkscape:label="menu_thick_border_left" />
    <rect
       style="opacity:1;fill:#9141ac;fill-opacity:1;stroke-width:0.264583;stroke-linecap:round"
       id="menu_thick_border_right"
       width="4.2333331"
       height="135.46666"
       x="139.70004"
       y="4.2333341"
       inkscape:label="menu_thick_border_right" />
    <rect
       style="opacity:1;fill:#9141ac;fill-opacity:1;stroke-width:0.0467721;stroke-linecap:round"
       id="menu_thick_border_bottom_right_corner"
       width="4.2333331"
       height="4.2333331"
       x="139.70004"
       y="139.69998"
       inkscape:label="menu_thick_border_bottom_right_corner" />
    <rect
       style="opacity:1;fill:#9141ac;fill-opacity:1;stroke-width:0.264583;stroke-linecap:round"
       id="menu_thick_border_bottom"
       width="135.46666"
       height="4.2333331"
       x="4.2333407"
       y="139.69998"
       inkscape:label="menu_thick_border_bottom" />
    <rect
       style="opacity:1;fill:#9141ac;fill-opacity:1;stroke-width:0.0467721;stroke-linecap:round"
       id="menu_thick_border_bottom_left_corner"
       width="4.2333331"
       height="4.2333331"
       x="4.3183451e-07"
       y="139.69998"
       inkscape:label="menu_thick_border_bottom_left_corner" />
    <rect
       style="opacity:1;fill:#3584e4;fill-opacity:1;stroke-width:0.264583;stroke-linecap:round"
       id="menu_thin_border_top"
       width="135.46666"
       height="2.1166666"
       x="148.1667"
       y="2.8871117e-08"
       inkscape:label="menu_thin_border_top" />
    <rect
       style="opacity:1;fill:#3584e4;fill-opacity:1;stroke-width:0.0467721;stroke-linecap:round"
       id="menu_thin_border_top_right_corner"
       width="2.1166666"
       height="2.1166666"
       x="283.63336"
       y="2.8871117e-08"
       inkscape:label="menu_thin_border_top_right_corner" />
    <rect
       style="opacity:1;fill:#3584e4;fill-opacity:1;stroke-width:0.0233861;stroke-linecap:round"
       id="menu_thin_border_top_left_corner"
       width="2.1166666"
       height="2.1166666"
       x="146.04997"
       y="-1.1954214e-07"
       inkscape:label="menu_thin_border_top_left_corner" />
    <rect
       style="opacity:1;fill:#3584e4;fill-opacity:1;stroke-width:0.264583;stroke-linecap:round"
       id="menu_thin_border_left"
       width="2.1166666"
       height="135.46666"
       x="146.05003"
       y="2.1166668"
       inkscape:label="menu_thin_border_left" />
    <rect
       style="opacity:1;fill:#3584e4;fill-opacity:1;stroke-width:0.264583;stroke-linecap:round"
       id="menu_thin_border_right"
       width="2.1166666"
       height="135.46666"
       x="283.63336"
       y="2.1166668"
       inkscape:label="menu_thin_border_right" />
    <rect
       style="opacity:1;fill:#3584e4;fill-opacity:1;stroke-width:0.0467721;stroke-linecap:round"
       id="menu_thin_border_bottom_right_corner"
       width="2.1166666"
       height="2.1166666"
       x="283.63336"
       y="137.58333"
       inkscape:label="menu_thin_border_bottom_right_corner" />
    <rect
       style="opacity:1;fill:#3584e4;fill-opacity:1;stroke-width:0.264583;stroke-linecap:round"
       id="menu_thin_border_bottom"
       width="135.46666"
       height="2.1166666"
       x="148.1667"
       y="137.58333"
       inkscape:label="menu_thin_border_bottom" />
    <rect
       style="opacity:1;fill:#3584e4;fill-opacity:1;stroke-width:0.0467721;stroke-linecap:round"
       id="menu_thin_border_bottom_left_corner"
       width="2.1166666"
       height="2.1166666"
       x="146.05003"
       y="137.58333"
       inkscape:label="menu_thin_border_bottom_left_corner" />
    <rect
       style="opacity:1;fill:#865e3c;fill-opacity:1;stroke-width:0.132291;stroke-linecap:round"
       id="menu_button_frame_top"
       width="33.866665"
       height="4.2333331"
       x="4.2333331"
       y="146.05005"
       inkscape:label="menu_button_frame_top" />
    <rect
       style="opacity:1;fill:#865e3c;fill-opacity:1;stroke-width:0.0467721;stroke-linecap:round"
       id="menu_button_frame_top_right_corner"
       width="4.2333331"
       height="4.2333331"
       x="38.099998"
       y="146.05"
       inkscape:label="menu_button_frame_top_right_corner" />
    <rect
       style="opacity:1;fill:#865e3c;fill-opacity:1;stroke-width:0.0467721;stroke-linecap:round"
       id="menu_button_frame_top_left_corner"
       width="4.2333331"
       height="4.2333331"
       x="1.9341591e-07"
       y="146.05005"
       inkscape:label="menu_button_frame_top_left_corner" />
    <rect
       style="opacity:1;fill:#865e3c;fill-opacity:1;stroke-width:0.0935442;stroke-linecap:round"
       id="menu_button_frame_left"
       width="4.2333331"
       height="16.933332"
       x="1.9341591e-07"
       y="150.28337"
       inkscape:label="menu_button_frame_left" />
    <rect
       style="opacity:1;fill:#865e3c;fill-opacity:1;stroke-width:0.0935439;stroke-linecap:round"
       id="menu_button_frame_right"
       width="4.2333331"
       height="16.933332"
       x="38.099998"
       y="150.28334"
       inkscape:label="menu_button_frame_right" />
    <rect
       style="opacity:1;fill:#865e3c;fill-opacity:1;stroke-width:0.0467721;stroke-linecap:round"
       id="menu_button_frame_bottom_right_corner"
       width="4.2333331"
       height="4.2333331"
       x="38.099998"
       y="167.21667"
       inkscape:label="menu_button_frame_bottom_right_corner" />
    <rect
       style="opacity:1;fill:#865e3c;fill-opacity:1;stroke-width:0.132291;stroke-linecap:round"
       id="menu_button_frame_bottom"
       width="33.866665"
       height="4.2333331"
       x="4.2333331"
       y="167.21667"
       inkscape:label="menu_button_frame_bottom" />
    <rect
       style="opacity:1;fill:#865e3c;fill-opacity:1;stroke-width:0.0467721;stroke-linecap:round"
       id="menu_button_frame_bottom_left_corner"
       width="4.2333331"
       height="4.2333331"
       x="-1.9341591e-07"
       y="167.21667"
       inkscape:label="menu_button_frame_bottom_left_corner" />
    <rect
       style="opacity:1;fill:#ffdd55;fill-opacity:1;stroke-width:0.264583;stroke-linecap:round"
       id="menu_head_block_top"
       width="135.46666"
       height="2.1166666"
       x="148.1667"
       y="164.04163"
       inkscape:label="menu_head_block_top" />
    <rect
       style="opacity:1;fill:#ffdd55;fill-opacity:1;stroke-width:0.0467721;stroke-linecap:round"
       id="menu_head_block_top_right_corner"
       width="2.1166666"
       height="2.1166666"
       x="283.63336"
       y="164.04163"
       inkscape:label="menu_head_block_top_right_corner" />
    <rect
       style="opacity:1;fill:#ffdd55;fill-opacity:1;stroke-width:0.0233861;stroke-linecap:round"
       id="menu_head_block_top_left_corner"
       width="2.1166666"
       height="2.1166666"
       x="146.04997"
       y="164.04163"
       inkscape:label="menu_head_block_top_left_corner" />
    <rect
       style="opacity:1;fill:#ffdd55;fill-opacity:1;stroke-width:0.0935442;stroke-linecap:round"
       id="menu_head_block_left"
       width="2.1166666"
       height="16.933332"
       x="146.05003"
       y="166.15831"
       inkscape:label="menu_head_block_left" />
    <rect
       style="opacity:1;fill:#ffdd55;fill-opacity:1;stroke-width:0.0935442;stroke-linecap:round"
       id="menu_head_block_right"
       width="2.1166666"
       height="16.933332"
       x="283.63336"
       y="166.15831"
       inkscape:label="menu_head_block_right" />
    <rect
       style="opacity:1;fill:#ffdd55;fill-opacity:1;stroke-width:0.0467721;stroke-linecap:round"
       id="menu_head_block_bottom_right_corner"
       width="2.1166666"
       height="2.1166666"
       x="283.63336"
       y="183.09149"
       inkscape:label="menu_head_block_bottom_right_corner" />
    <rect
       style="opacity:1;fill:#ffdd55;fill-opacity:1;stroke-width:0.264583;stroke-linecap:round"
       id="menu_head_block_bottom"
       width="135.46666"
       height="2.1166666"
       x="148.1667"
       y="183.09149"
       inkscape:label="menu_head_block_bottom" />
    <rect
       style="opacity:1;fill:#ffdd55;fill-opacity:1;stroke-width:0.0467721;stroke-linecap:round"
       id="menu_head_block_bottom_left_corner"
       width="2.1166666"
       height="2.1166666"
       x="146.05003"
       y="183.09149"
       inkscape:label="menu_head_block_bottom_left_corner" />
    <rect
       style="fill:#ff9955;stroke-width:0.264583;stroke-linecap:round"
       id="menu_head_block_middle"
       width="135.46666"
       height="16.933332"
       x="148.16667"
       y="166.15833"
       inkscape:label="menu_head_block_middle" />
    <rect
       style="opacity:1;fill:#ff8080;fill-opacity:1;stroke-width:0.0935442;stroke-linecap:round"
       id="menu_rightbuttonup_top"
       width="16.933332"
       height="2.1166666"
       x="148.1667"
       y="198.96657"
       inkscape:label="menu_rightbuttonup_top" />
    <rect
       style="opacity:1;fill:#ff8080;fill-opacity:1;stroke-width:0.0467721;stroke-linecap:round"
       id="menu_rightbuttonup_top_right"
       width="2.1166666"
       height="2.1166666"
       x="165.10001"
       y="198.96657"
       inkscape:label="menu_rightbuttonup_top_right" />
    <rect
       style="opacity:1;fill:#ff8080;fill-opacity:1;stroke-width:0.0233861;stroke-linecap:round"
       id="menu_rightbuttonup_top_left"
       width="2.1166666"
       height="2.1166666"
       x="146.04997"
       y="198.96657"
       inkscape:label="menu_rightbuttonup_top_left" />
    <rect
       style="opacity:1;fill:#ff8080;fill-opacity:1;stroke-width:0.0935442;stroke-linecap:round"
       id="menu_rightbuttonup_left"
       width="2.1166666"
       height="16.933332"
       x="146.05003"
       y="201.08325"
       inkscape:label="menu_rightbuttonup_left" />
    <rect
       style="opacity:1;fill:#ff8080;fill-opacity:1;stroke-width:0.0935442;stroke-linecap:round"
       id="menu_rightbuttonup_right"
       width="2.1166666"
       height="16.933332"
       x="165.10001"
       y="201.08325"
       inkscape:label="menu_rightbuttonup_right" />
    <rect
       style="opacity:1;fill:#ff8080;fill-opacity:1;stroke-width:0.0467721;stroke-linecap:round"
       id="menu_rightbuttonup_bottom_right"
       width="2.1166666"
       height="2.1166666"
       x="165.10001"
       y="218.01643"
       inkscape:label="menu_rightbuttonup_bottom_right" />
    <rect
       style="opacity:1;fill:#ff8080;fill-opacity:1;stroke-width:0.0935442;stroke-linecap:round"
       id="menu_rightbuttonup_bottom"
       width="16.933332"
       height="2.1166666"
       x="148.1667"
       y="218.01643"
       inkscape:label="menu_rightbuttonup_bottom" />
    <rect
       style="opacity:1;fill:#ff8080;fill-opacity:1;stroke-width:0.0467721;stroke-linecap:round"
       id="menu_rightbuttonup_bottom_left"
       width="2.1166666"
       height="2.1166666"
       x="146.05003"
       y="218.01643"
       inkscape:label="menu_rightbuttonup_bottom_left" />
    <rect
       style="fill:#aa0000;stroke-width:0.0935442;stroke-linecap:round"
       id="menu_rightbuttonup_center"
       width="16.933332"
       height="16.933332"
       x="148.16667"
       y="201.08327"
       inkscape:label="menu_rightbuttonup_center" />
    <rect
       style="opacity:1;fill:#00ff00;fill-opacity:1;stroke-width:0.0935442;stroke-linecap:round"
       id="menu_rightbuttondown_top"
       width="16.933332"
       height="2.1166666"
       x="148.1667"
       y="225.42485"
       inkscape:label="menu_rightbuttondown_top" />
    <rect
       style="opacity:1;fill:#00ff00;fill-opacity:1;stroke-width:0.0467721;stroke-linecap:round"
       id="menu_rightbuttondown_top_right"
       width="2.1166666"
       height="2.1166666"
       x="165.10001"
       y="225.42485"
       inkscape:label="menu_rightbuttondown_top_right" />
    <rect
       style="opacity:1;fill:#00ff00;fill-opacity:1;stroke-width:0.0233861;stroke-linecap:round"
       id="menu_rightbuttondown_top_left"
       width="2.1166666"
       height="2.1166666"
       x="146.04997"
       y="225.42485"
       inkscape:label="menu_rightbuttondown_top_left" />
    <rect
       style="opacity:1;fill:#00ff00;fill-opacity:1;stroke-width:0.0935442;stroke-linecap:round"
       id="menu_rightbuttondown_left"
       width="2.1166666"
       height="16.933332"
       x="146.05003"
       y="227.54153"
       inkscape:label="menu_rightbuttondown_left" />
    <rect
       style="opacity:1;fill:#00ff00;fill-opacity:1;stroke-width:0.0935442;stroke-linecap:round"
       id="menu_rightbuttondown_right"
       width="2.1166666"
       height="16.933332"
       x="165.10001"
       y="227.54153"
       inkscape:label="menu_rightbuttondown_right" />
    <rect
       style="opacity:1;fill:#00ff00;fill-opacity:1;stroke-width:0.0467721;stroke-linecap:round"
       id="menu_rightbuttondown_bottom_right"
       width="2.1166666"
       height="2.1166666"
       x="165.10001"
       y="244.47472"
       inkscape:label="menu_rightbuttondown_bottom_right" />
    <rect
       style="opacity:1;fill:#00ff00;fill-opacity:1;stroke-width:0.0935442;stroke-linecap:round"
       id="menu_rightbuttondown_bottom"
       width="16.933332"
       height="2.1166666"
       x="148.1667"
       y="244.47472"
       inkscape:label="menu_rightbuttondown_bottom" />
    <rect
       style="opacity:1;fill:#00ff00;fill-opacity:1;stroke-width:0.0467721;stroke-linecap:round"
       id="menu_rightbuttondown_bottom_left"
       width="2.1166666"
       height="2.1166666"
       x="146.05003"
       y="244.47472"
       inkscape:label="menu_rightbuttondown_bottom_left" />
    <rect
       style="fill:#008000;stroke-width:0.0935442;stroke-linecap:round"
       id="menu_rightbuttondown_center"
       width="16.933332"
       height="16.933332"
       x="148.16667"
       y="227.54155"
       inkscape:label="menu_rightbuttondown_center" />
    <text
       xml:space="preserve"
       style="font-style:normal;font-weight:normal;font-size:7.76111px;line-height:1.25;font-family:sans-serif;display:none;fill:#000000;fill-opacity:1;stroke:none;stroke-width:0.264583"
       x="171.22946"
       y="231.65346"
       id="text1297"><tspan
         sodipodi:role="line"
         id="tspan1295"
         x="0"
         y="0"
         style="font-size:7.76111px;stroke-width:0.264583">Pin window ON</tspan></text>
    <text
       xml:space="preserve"
       style="font-style:normal;font-weight:normal;font-size:7.76111px;line-height:1.25;font-family:sans-serif;display:none;fill:#000000;fill-opacity:1;stroke:none;stroke-width:0.264583"
       x="171.22946"
       y="205.19518"
       id="text1275"><tspan
         sodipodi:role="line"
         id="tspan1273"
         x="0"
         y="0"
         style="font-size:7.76111px;stroke-width:0.264583">Pin window OFF</tspan></text>
    <text
       xml:space="preserve"
       style="font-style:normal;font-weight:normal;font-size:7.76111px;line-height:1.25;font-family:sans-serif;display:none;fill:#000000;fill-opacity:1;stroke:none;stroke-width:0.264583"
       x="146.646"
       y="160.7429"
       id="text1267"><tspan
         sodipodi:role="line"
         id="tspan1265"
         x="0"
         y="0"
         style="font-size:7.76111px;stroke-width:0.264583">Header</tspan></text>
    <text
       xml:space="preserve"
       style="font-style:normal;font-weight:normal;font-size:7.76111px;line-height:1.25;font-family:sans-serif;display:none;fill:#000000;fill-opacity:1;stroke:none;stroke-width:0.264583"
       x="-64.839043"
       y="161.41641"
       id="text1263"><tspan
         sodipodi:role="line"
         id="tspan1261"
         x="0"
         y="0"
         style="font-size:7.76111px;stroke-width:0.264583">Generic button</tspan></text>
    <text
       xml:space="preserve"
       style="font-style:normal;font-weight:normal;font-size:7.76111px;line-height:1.25;font-family:sans-serif;display:none;fill:#000000;fill-opacity:1;stroke:none;stroke-width:0.264583"
       x="155.31042"
       y="18.573753"
       id="text1259"><tspan
         sodipodi:role="line"
         id="tspan1257"
         x="0"
         y="0"
         style="font-size:7.76111px;stroke-width:0.264583">Thin window border</tspan></text>
    <text
       xml:space="preserve"
       style="font-style:normal;font-weight:normal;font-size:7.76111px;line-height:1.25;font-family:sans-serif;display:none;fill:#000000;fill-opacity:1;stroke:none;stroke-width:0.264583"
       x="8.3872938"
       y="18.573753"
       id="text1255"><tspan
         sodipodi:role="line"
         id="tspan1253"
         x="0"
         y="0"
         style="font-size:7.76111px;stroke-width:0.264583">Thick window border</tspan></text>
    <g
       id="omw_menu_scroll_up"
       inkscape:label="omw_menu_scroll_up"
       transform="translate(0,-10.583333)">
      <rect
         style="fill:#e01b24;fill-opacity:0.306422;stroke-width:0.264583;stroke-linecap:round"
         id="rect1299"
         width="16.933332"
         height="16.933332"
         x="148.16667"
         y="266.69992" />
      <path
         style="fill:#ffffff;fill-opacity:1;stroke:none;stroke-width:0.264583px;stroke-linecap:butt;stroke-linejoin:miter;stroke-opacity:1"
         d="M 156.63333,267.75834 165.1,282.575 h -16.93334 l 8.46667,-14.81666"
         id="path2124" />
    </g>
    <g
       id="omw_menu_scroll_down"
       inkscape:label="omw_menu_scroll_down"
       transform="translate(0,-10.583333)">
      <rect
         style="fill:#e01b24;fill-opacity:0.306422;stroke-width:0.264583;stroke-linecap:round"
         id="rect2126"
         width="16.933332"
         height="16.933332"
         x="167.21664"
         y="266.69992" />
      <path
         style="fill:#ffffff;fill-opacity:1;stroke:none;stroke-width:0.264583px;stroke-linecap:butt;stroke-linejoin:miter;stroke-opacity:1"
         d="m 175.6833,282.575 8.46667,-14.81666 h -16.93334 l 8.46667,14.81666"
         id="path2128" />
    </g>
    <g
       id="omw_menu_scroll_left"
       inkscape:label="omw_menu_scroll_left"
       transform="translate(0,-10.583333)">
      <rect
         style="fill:#e01b24;fill-opacity:0.306422;stroke-width:0.264583;stroke-linecap:round"
         id="rect2130"
         width="16.933332"
         height="16.933332"
         x="186.26662"
         y="266.69992" />
      <path
         style="fill:#f8e45c;fill-opacity:1;stroke:none;stroke-width:0.264583px;stroke-linecap:butt;stroke-linejoin:miter;stroke-opacity:1"
         d="m 187.32494,275.16667 14.81666,8.46667 V 266.7 l -14.81666,8.46667"
         id="path2132" />
    </g>
    <g
       id="omw_menu_scroll_right"
       inkscape:label="omw_menu_scroll_right"
       transform="translate(0,-10.583333)">
      <rect
         style="fill:#e01b24;fill-opacity:0.306422;stroke-width:0.264583;stroke-linecap:round"
         id="rect2134"
         width="16.933332"
         height="16.933332"
         x="205.31659"
         y="266.69992" />
      <path
         style="fill:#f8e45c;fill-opacity:1;stroke:none;stroke-width:0.264583px;stroke-linecap:butt;stroke-linejoin:miter;stroke-opacity:1"
         d="M 221.19157,275.16667 206.37491,266.7 v 16.93334 l 14.81666,-8.46667"
         id="path2136" />
    </g>
    <g
       id="menu_size_button"
       inkscape:label="menu_size_button"
       transform="translate(0,31.749997)">
      <path
         id="rect2154"
         style="fill:#e01b24;fill-opacity:1;stroke-width:0.999999;stroke-linecap:round"
         d="m 560,1128 v 64 h 28 36 v -36 -28 z m 4,4 h 56 v 24 h -32 v 32 h -24 z m 28,28 h 28 v 28 h -28 z"
         transform="matrix(0.26458333,0,0,0.26458333,0,-31.749997)" />
      <rect
         style="fill:#e01b24;fill-opacity:1;stroke:none;stroke-width:0.264583;stroke-linecap:round"
         id="rect2176"
         width="10.080779"
         height="1.0583344"
         x="294.47757"
         y="83.441551"
         transform="rotate(45)" />
    </g>
    <g
       id="door_icon"
       inkscape:label="door_icon">
      <rect
         style="opacity:0.368377;fill:#e01b24;stroke-width:0.0935442;stroke-linecap:round"
         id="rect2178"
         width="16.933332"
         height="16.933332"
         x="148.16667"
         y="322.79175"
         inkscape:label="menu_rightbuttondown_center" />
      <path
         id="rect2182"
         style="fill:#c0bfbc;fill-opacity:1;stroke:none;stroke-width:0.999999;stroke-linecap:round"
         d="m 560,1220 v 32 h 32 v -32 z m 4,4 h 24 v 24 h -24 z m 4,4 v 16 h 16 v -16 z m 4,4 h 8 v 8 h -8 z"
         transform="scale(0.26458333)"
         sodipodi:nodetypes="cccccccccccccccccccc" />
      <path
         id="rect2197"
         style="fill:#ffffff;fill-opacity:1;stroke:none;stroke-width:0.999999;stroke-linecap:round"
         d="m 564,1224 v 24 h 24 v -24 z m 4,4 h 16 v 16 h -16 z"
         transform="scale(0.26458333)"
         sodipodi:nodetypes="cccccccccc" />
    </g>
    <rect
       style="fill:#ffffff;fill-opacity:1;stroke:none;stroke-width:0.264583;stroke-linecap:round"
       id="tx_menu_4x4white"
       width="8.4666662"
       height="8.4666662"
       x="167.21664"
       y="322.79166"
       inkscape:label="tx_menu_4x4white" />
    <rect
       style="fill:#6e6e6e;fill-opacity:1;stroke:none;stroke-width:0.529166;stroke-linecap:round"
       id="tx_menu_8x8black"
       width="16.933332"
       height="16.933332"
       x="177.79996"
       y="322.79166"
       inkscape:label="tx_menu_8x8black" />
    <rect
       style="fill:url(#linearGradient2221);fill-opacity:1;stroke:none;stroke-width:0.529166;stroke-linecap:round"
       id="tx_menu_8x8grad"
       width="16.933332"
       height="16.933332"
       x="196.84993"
       y="322.79166"
       inkscape:label="tx_menu_8x8grad" />
    <rect
       style="fill:#8ff0a4;fill-opacity:1;stroke:none;stroke-width:0.264583;stroke-linecap:round"
       id="omw_menu_scroll_center_v"
       width="8.4666662"
       height="16.933332"
       x="224.36665"
       y="256.11661"
       inkscape:label="omw_menu_scroll_center_v" />
    <rect
       style="fill:#8ff0a4;fill-opacity:1;stroke:none;stroke-width:0.264583;stroke-linecap:round"
       id="omw_menu_scroll_center_h"
       width="8.4666662"
       height="16.933332"
       x="264.58334"
       y="-251.88336"
       transform="rotate(90)"
       inkscape:label="omw_menu_scroll_center_h" />
  </g>
</svg>
